{
 "SoundBanksInfo": {
  "Platform": "Windows",
  "BasePlatform": "Windows",
  "SchemaVersion": "12",
  "SoundbankVersion": "135",
  "RootPaths": {
   "ProjectRoot": "D:\\SOUND DESIGN\\PRO\\spacetraveller\\Wwise_project\\Space_Traveler_wwiseproj\\",
   "SourceFilesRoot": "D:\\SOUND DESIGN\\PRO\\spacetraveller\\Wwise_project\\Space_Traveler_wwiseproj\\.cache\\Windows\\",
   "SoundBanksRoot": "D:\\SOUND DESIGN\\PRO\\spacetraveller\\Wwise_project\\Space_Traveler_wwiseproj\\GeneratedSoundBanks\\Windows\\",
   "ExternalSourcesInputFile": "",
   "ExternalSourcesOutputRoot": "D:\\SOUND DESIGN\\PRO\\spacetraveller\\Wwise_project\\Space_Traveler_wwiseproj\\GeneratedSoundBanks\\Windows"
  },
  "SoundBanks": [
   {
    "Id": "3657742645",
    "GUID": "{55086878-1E59-43FC-8A14-22E6C6E2ECD2}",
    "Language": "SFX",
    "ObjectPath": "\\SoundBanks\\Default Work Unit\\General_soundbank",
    "ShortName": "General_soundbank",
    "Path": "General_soundbank.bnk",
    "IncludedEvents": [
     {
      "Id": "2801770543",
      "Name": "Play_audio_test",
      "ObjectPath": "\\Events\\Default Work Unit\\Play_audio_test",
      "GUID": "{AB41B620-1FC3-40CA-9F78-AB0185132FF5}",
      "DurationType": "OneShot",
      "DurationMin": "4.048000",
      "DurationMax": "4.048000",
      "IncludedMemoryFiles": [
       {
        "Id": "94279633",
        "Language": "SFX",
        "ShortName": "23 Mini Fan Modified\\MINI FAN MODIFIED, Insect like, buzzing, high pitched, clumsy, Medium buzz, Medium speed_07.wav",
        "Path": "SFX\\23 Mini Fan Modified\\MINI FAN MODIFIED, Insect like, buzzing, high pitched, clumsy, Medium buzz, Medium speed_07_10C4C929.wem"
       }
      ]
     }
    ],
    "IncludedMemoryFiles": [
     {
      "Id": "94279633",
      "Language": "SFX",
      "ShortName": "23 Mini Fan Modified\\MINI FAN MODIFIED, Insect like, buzzing, high pitched, clumsy, Medium buzz, Medium speed_07.wav",
      "Path": "SFX\\23 Mini Fan Modified\\MINI FAN MODIFIED, Insect like, buzzing, high pitched, clumsy, Medium buzz, Medium speed_07_10C4C929.wem"
     }
    ]
   }
  ]
 }
}