{
 "PluginInfo": {
  "Project": "Space_Traveler_wwiseproj",
  "Platform": "Windows",
  "BasePlatform": "Windows",
  "Plugins": [
   {
    "Name": "Wwise RoomVerb",
    "ID": "7733251",
    "DLL": "AkRoomVerb"
   },
   {
    "Name": "Wwise Meter",
    "ID": "8454147",
    "DLL": "AkSoundEngineDLL"
   },
   {
    "Name": "System",
    "ID": "11403271",
    "DLL": "DefaultSink"
   },
   {
    "Name": "No Output",
    "ID": "11862023",
    "DLL": "DefaultSink"
   }
  ]
 }
}