{
 "SoundBanksInfo": {
  "Platform": "Windows",
  "BasePlatform": "Windows",
  "SchemaVersion": "12",
  "SoundbankVersion": "135",
  "RootPaths": {
   "ProjectRoot": "D:\\SOUND DESIGN\\PRO\\spacetraveller\\Wwise_project\\Space_Traveler_wwiseproj\\",
   "SourceFilesRoot": "D:\\SOUND DESIGN\\PRO\\spacetraveller\\Wwise_project\\Space_Traveler_wwiseproj\\.cache\\Windows\\",
   "SoundBanksRoot": "D:\\SOUND DESIGN\\PRO\\spacetraveller\\Wwise_project\\Space_Traveler_wwiseproj\\GeneratedSoundBanks\\Windows\\",
   "ExternalSourcesInputFile": "",
   "ExternalSourcesOutputRoot": "D:\\SOUND DESIGN\\PRO\\spacetraveller\\Wwise_project\\Space_Traveler_wwiseproj\\GeneratedSoundBanks\\Windows"
  },
  "SoundBanks": [
   {
    "Id": "326304736",
    "GUID": "{137303E0-03E0-13E0-E0E0-E0E0E0E0E0E0}",
    "Language": "SFX",
    "ObjectPath": "\\SoundBanks\\Default Work Unit\\SB_66622B14845549E899CF1C51C13E220E",
    "ShortName": "SB_66622B14845549E899CF1C51C13E220E",
    "Path": "SB_66622B14845549E899CF1C51C13E220E.bnk",
    "IncludedEvents": [
     {
      "Id": "3183159482",
      "Name": "event_nul_sans_son",
      "ObjectPath": "\\Events\\Default Work Unit\\event_nul_sans_son",
      "GUID": "{66622B14-8455-49E8-99CF-1C51C13E220E}",
      "MaxAttenuation": "0.000000",
      "DurationType": "OneShot",
      "DurationMin": "0.000000",
      "DurationMax": "0.000000"
     }
    ]
   }
  ]
 }
}